%YAML 1.1
%TAG !u! tag:unity3d.com,2011:
--- !u!114 &2877146907453064410
MonoBehaviour:
  m_ObjectHideFlags: 0
  m_CorrespondingSourceObject: {fileID: 0}
  m_PrefabInstance: {fileID: 0}
  m_PrefabAsset: {fileID: 0}
  m_GameObject: {fileID: 5981717365744838913}
  m_Enabled: 1
  m_EditorHideFlags: 0
  m_Script: {fileID: 11500000, guid: dfbca82a07fa6714fa53eeb43cc7d60f, type: 3}
  m_Name: 
  m_EditorClassIdentifier: 
  m_itemId: canned_food_item_id
  ItemAction: 0
  AffectedResource: Hunger
  AffectedResourceAmount: 10
  ContainedItem: {fileID: 0}
  Effect: {fileID: 0}
  HasPreRequisite: 0
  PreRequisiteId: missing_item_id
--- !u!1001 &7726046754438769401
PrefabInstance:
  m_ObjectHideFlags: 0
  serializedVersion: 2
  m_Modification:
    m_TransformParent: {fileID: 0}
    m_Modifications:
    - target: {fileID: 4051896984043275256, guid: 75b83a8f42b913a45bf1bdc01b79ce3c,
        type: 3}
      propertyPath: m_Name
      value: Canned Food 2
      objectReference: {fileID: 0}
    - target: {fileID: 4051896984043275256, guid: 75b83a8f42b913a45bf1bdc01b79ce3c,
        type: 3}
      propertyPath: m_TagString
      value: Items
      objectReference: {fileID: 0}
    - target: {fileID: 5411875125067717366, guid: 75b83a8f42b913a45bf1bdc01b79ce3c,
        type: 3}
      propertyPath: m_IsTrigger
      value: 1
      objectReference: {fileID: 0}
    - target: {fileID: 1035936827149038059, guid: 75b83a8f42b913a45bf1bdc01b79ce3c,
        type: 3}
      propertyPath: m_LocalPosition.x
      value: 1.593863
      objectReference: {fileID: 0}
    - target: {fileID: 1035936827149038059, guid: 75b83a8f42b913a45bf1bdc01b79ce3c,
        type: 3}
      propertyPath: m_LocalPosition.y
      value: 3.2320995
      objectReference: {fileID: 0}
    - target: {fileID: 1035936827149038059, guid: 75b83a8f42b913a45bf1bdc01b79ce3c,
        type: 3}
      propertyPath: m_LocalPosition.z
      value: 2.144563
      objectReference: {fileID: 0}
    - target: {fileID: 1035936827149038059, guid: 75b83a8f42b913a45bf1bdc01b79ce3c,
        type: 3}
      propertyPath: m_LocalRotation.x
      value: 0
      objectReference: {fileID: 0}
    - target: {fileID: 1035936827149038059, guid: 75b83a8f42b913a45bf1bdc01b79ce3c,
        type: 3}
      propertyPath: m_LocalRotation.y
      value: -0
      objectReference: {fileID: 0}
    - target: {fileID: 1035936827149038059, guid: 75b83a8f42b913a45bf1bdc01b79ce3c,
        type: 3}
      propertyPath: m_LocalRotation.z
      value: -0
      objectReference: {fileID: 0}
    - target: {fileID: 1035936827149038059, guid: 75b83a8f42b913a45bf1bdc01b79ce3c,
        type: 3}
      propertyPath: m_LocalRotation.w
      value: 1
      objectReference: {fileID: 0}
    - target: {fileID: 1035936827149038059, guid: 75b83a8f42b913a45bf1bdc01b79ce3c,
        type: 3}
      propertyPath: m_RootOrder
      value: 0
      objectReference: {fileID: 0}
    - target: {fileID: 1035936827149038059, guid: 75b83a8f42b913a45bf1bdc01b79ce3c,
        type: 3}
      propertyPath: m_LocalEulerAnglesHint.x
      value: 0
      objectReference: {fileID: 0}
    - target: {fileID: 1035936827149038059, guid: 75b83a8f42b913a45bf1bdc01b79ce3c,
        type: 3}
      propertyPath: m_LocalEulerAnglesHint.y
      value: 0
      objectReference: {fileID: 0}
    - target: {fileID: 1035936827149038059, guid: 75b83a8f42b913a45bf1bdc01b79ce3c,
        type: 3}
      propertyPath: m_LocalEulerAnglesHint.z
      value: 0
      objectReference: {fileID: 0}
    - target: {fileID: 5411875125067717367, guid: 75b83a8f42b913a45bf1bdc01b79ce3c,
        type: 3}
      propertyPath: m_Enabled
      value: 0
      objectReference: {fileID: 0}
    m_RemovedComponents:
    - {fileID: 5411875125067717367, guid: 75b83a8f42b913a45bf1bdc01b79ce3c, type: 3}
  m_SourcePrefab: {fileID: 100100000, guid: 75b83a8f42b913a45bf1bdc01b79ce3c, type: 3}
--- !u!1 &5981717365744838913 stripped
GameObject:
  m_CorrespondingSourceObject: {fileID: 4051896984043275256, guid: 75b83a8f42b913a45bf1bdc01b79ce3c,
    type: 3}
  m_PrefabInstance: {fileID: 7726046754438769401}
  m_PrefabAsset: {fileID: 0}
