%YAML 1.1
%TAG !u! tag:unity3d.com,2011:
--- !u!114 &2191485840958666146
MonoBehaviour:
  m_ObjectHideFlags: 0
  m_CorrespondingSourceObject: {fileID: 0}
  m_PrefabInstance: {fileID: 0}
  m_PrefabAsset: {fileID: 0}
  m_GameObject: {fileID: 8977745031465178072}
  m_Enabled: 1
  m_EditorHideFlags: 0
  m_Script: {fileID: 11500000, guid: dfbca82a07fa6714fa53eeb43cc7d60f, type: 3}
  m_Name: 
  m_EditorClassIdentifier: 
  m_itemId: ham_item_id
  ItemAction: 0
  AffectedResource: No Resource
  AffectedResourceAmount: 1
  ContainedItem: {fileID: 0}
  Effect: {fileID: 0}
  HasPreRequisite: 0
  PreRequisiteId: missing_item_id
--- !u!1001 &3345480991626791270
PrefabInstance:
  m_ObjectHideFlags: 0
  serializedVersion: 2
  m_Modification:
    m_TransformParent: {fileID: 0}
    m_Modifications:
    - target: {fileID: 5979323137102060222, guid: c2b9f2c9bf7c3ea409a2cccb7547c8c6,
        type: 3}
      propertyPath: m_Name
      value: Ham
      objectReference: {fileID: 0}
    - target: {fileID: 5979323137102060222, guid: c2b9f2c9bf7c3ea409a2cccb7547c8c6,
        type: 3}
      propertyPath: m_TagString
      value: Items
      objectReference: {fileID: 0}
    - target: {fileID: 2494770217155348303, guid: c2b9f2c9bf7c3ea409a2cccb7547c8c6,
        type: 3}
      propertyPath: m_LocalPosition.x
      value: 1.9041499
      objectReference: {fileID: 0}
    - target: {fileID: 2494770217155348303, guid: c2b9f2c9bf7c3ea409a2cccb7547c8c6,
        type: 3}
      propertyPath: m_LocalPosition.y
      value: 3.1762507
      objectReference: {fileID: 0}
    - target: {fileID: 2494770217155348303, guid: c2b9f2c9bf7c3ea409a2cccb7547c8c6,
        type: 3}
      propertyPath: m_LocalPosition.z
      value: 3.5692806
      objectReference: {fileID: 0}
    - target: {fileID: 2494770217155348303, guid: c2b9f2c9bf7c3ea409a2cccb7547c8c6,
        type: 3}
      propertyPath: m_LocalRotation.x
      value: 0
      objectReference: {fileID: 0}
    - target: {fileID: 2494770217155348303, guid: c2b9f2c9bf7c3ea409a2cccb7547c8c6,
        type: 3}
      propertyPath: m_LocalRotation.y
      value: 0
      objectReference: {fileID: 0}
    - target: {fileID: 2494770217155348303, guid: c2b9f2c9bf7c3ea409a2cccb7547c8c6,
        type: 3}
      propertyPath: m_LocalRotation.z
      value: 0
      objectReference: {fileID: 0}
    - target: {fileID: 2494770217155348303, guid: c2b9f2c9bf7c3ea409a2cccb7547c8c6,
        type: 3}
      propertyPath: m_LocalRotation.w
      value: 1
      objectReference: {fileID: 0}
    - target: {fileID: 2494770217155348303, guid: c2b9f2c9bf7c3ea409a2cccb7547c8c6,
        type: 3}
      propertyPath: m_RootOrder
      value: 0
      objectReference: {fileID: 0}
    - target: {fileID: 2494770217155348303, guid: c2b9f2c9bf7c3ea409a2cccb7547c8c6,
        type: 3}
      propertyPath: m_LocalEulerAnglesHint.x
      value: 0
      objectReference: {fileID: 0}
    - target: {fileID: 2494770217155348303, guid: c2b9f2c9bf7c3ea409a2cccb7547c8c6,
        type: 3}
      propertyPath: m_LocalEulerAnglesHint.y
      value: 0
      objectReference: {fileID: 0}
    - target: {fileID: 2494770217155348303, guid: c2b9f2c9bf7c3ea409a2cccb7547c8c6,
        type: 3}
      propertyPath: m_LocalEulerAnglesHint.z
      value: 0
      objectReference: {fileID: 0}
    m_RemovedComponents: []
  m_SourcePrefab: {fileID: 100100000, guid: c2b9f2c9bf7c3ea409a2cccb7547c8c6, type: 3}
--- !u!1 &8977745031465178072 stripped
GameObject:
  m_CorrespondingSourceObject: {fileID: 5979323137102060222, guid: c2b9f2c9bf7c3ea409a2cccb7547c8c6,
    type: 3}
  m_PrefabInstance: {fileID: 3345480991626791270}
  m_PrefabAsset: {fileID: 0}
