%YAML 1.1
%TAG !u! tag:unity3d.com,2011:
--- !u!65 &8892424696363428977
BoxCollider:
  m_ObjectHideFlags: 0
  m_CorrespondingSourceObject: {fileID: 0}
  m_PrefabInstance: {fileID: 0}
  m_PrefabAsset: {fileID: 0}
  m_GameObject: {fileID: 15108066906025602}
  m_Material: {fileID: 0}
  m_IsTrigger: 1
  m_Enabled: 1
  serializedVersion: 2
  m_Size: {x: 0.0025084878, y: 0.005541299, z: 0.002381085}
  m_Center: {x: -0.0058231386, y: 0.002021215, z: -0.0000068728336}
--- !u!114 &1857203179813932498
MonoBehaviour:
  m_ObjectHideFlags: 0
  m_CorrespondingSourceObject: {fileID: 0}
  m_PrefabInstance: {fileID: 0}
  m_PrefabAsset: {fileID: 0}
  m_GameObject: {fileID: 15108066906025602}
  m_Enabled: 1
  m_EditorHideFlags: 0
  m_Script: {fileID: 11500000, guid: dfbca82a07fa6714fa53eeb43cc7d60f, type: 3}
  m_Name: 
  m_EditorClassIdentifier: 
  m_itemId: milk_item_id
  ItemAction: 1
  AffectedResource: Thirst
  AffectedResourceAmount: 10
  ContainedItem: {fileID: 0}
  Effect: {fileID: 0}
  HasPreRequisite: 0
  PreRequisiteId: missing_item_id
--- !u!1001 &1995865395043897929
PrefabInstance:
  m_ObjectHideFlags: 0
  serializedVersion: 2
  m_Modification:
    m_TransformParent: {fileID: 0}
    m_Modifications:
    - target: {fileID: 1983573627319827659, guid: 0a01077f915f7bc46994fb94b0362b9e,
        type: 3}
      propertyPath: m_Name
      value: Milk
      objectReference: {fileID: 0}
    - target: {fileID: 1983573627319827659, guid: 0a01077f915f7bc46994fb94b0362b9e,
        type: 3}
      propertyPath: m_TagString
      value: Items
      objectReference: {fileID: 0}
    - target: {fileID: 6573297657355115729, guid: 0a01077f915f7bc46994fb94b0362b9e,
        type: 3}
      propertyPath: m_LocalPosition.x
      value: 0.84820354
      objectReference: {fileID: 0}
    - target: {fileID: 6573297657355115729, guid: 0a01077f915f7bc46994fb94b0362b9e,
        type: 3}
      propertyPath: m_LocalPosition.y
      value: 4.801
      objectReference: {fileID: 0}
    - target: {fileID: 6573297657355115729, guid: 0a01077f915f7bc46994fb94b0362b9e,
        type: 3}
      propertyPath: m_LocalPosition.z
      value: 3.218
      objectReference: {fileID: 0}
    - target: {fileID: 6573297657355115729, guid: 0a01077f915f7bc46994fb94b0362b9e,
        type: 3}
      propertyPath: m_LocalRotation.x
      value: 0
      objectReference: {fileID: 0}
    - target: {fileID: 6573297657355115729, guid: 0a01077f915f7bc46994fb94b0362b9e,
        type: 3}
      propertyPath: m_LocalRotation.y
      value: 0
      objectReference: {fileID: 0}
    - target: {fileID: 6573297657355115729, guid: 0a01077f915f7bc46994fb94b0362b9e,
        type: 3}
      propertyPath: m_LocalRotation.z
      value: 0
      objectReference: {fileID: 0}
    - target: {fileID: 6573297657355115729, guid: 0a01077f915f7bc46994fb94b0362b9e,
        type: 3}
      propertyPath: m_LocalRotation.w
      value: 1
      objectReference: {fileID: 0}
    - target: {fileID: 6573297657355115729, guid: 0a01077f915f7bc46994fb94b0362b9e,
        type: 3}
      propertyPath: m_RootOrder
      value: 0
      objectReference: {fileID: 0}
    - target: {fileID: 6573297657355115729, guid: 0a01077f915f7bc46994fb94b0362b9e,
        type: 3}
      propertyPath: m_LocalEulerAnglesHint.x
      value: 0
      objectReference: {fileID: 0}
    - target: {fileID: 6573297657355115729, guid: 0a01077f915f7bc46994fb94b0362b9e,
        type: 3}
      propertyPath: m_LocalEulerAnglesHint.y
      value: 0
      objectReference: {fileID: 0}
    - target: {fileID: 6573297657355115729, guid: 0a01077f915f7bc46994fb94b0362b9e,
        type: 3}
      propertyPath: m_LocalEulerAnglesHint.z
      value: 0
      objectReference: {fileID: 0}
    m_RemovedComponents:
    - {fileID: 5562053216365016691, guid: 0a01077f915f7bc46994fb94b0362b9e, type: 3}
  m_SourcePrefab: {fileID: 100100000, guid: 0a01077f915f7bc46994fb94b0362b9e, type: 3}
--- !u!1 &15108066906025602 stripped
GameObject:
  m_CorrespondingSourceObject: {fileID: 1983573627319827659, guid: 0a01077f915f7bc46994fb94b0362b9e,
    type: 3}
  m_PrefabInstance: {fileID: 1995865395043897929}
  m_PrefabAsset: {fileID: 0}
