%YAML 1.1
%TAG !u! tag:unity3d.com,2011:
--- !u!65 &378468016
BoxCollider:
  m_ObjectHideFlags: 0
  m_CorrespondingSourceObject: {fileID: 0}
  m_PrefabInstance: {fileID: 0}
  m_PrefabAsset: {fileID: 0}
  m_GameObject: {fileID: 3098637956862376643}
  m_Material: {fileID: 0}
  m_IsTrigger: 0
  m_Enabled: 1
  serializedVersion: 2
  m_Size: {x: 77.08679, y: 164.17514, z: 205.14233}
  m_Center: {x: 0.13656235, y: 0.0000038146973, z: 0}
--- !u!65 &441631102
BoxCollider:
  m_ObjectHideFlags: 0
  m_CorrespondingSourceObject: {fileID: 0}
  m_PrefabInstance: {fileID: 0}
  m_PrefabAsset: {fileID: 0}
  m_GameObject: {fileID: 4071572071123198458}
  m_Material: {fileID: 0}
  m_IsTrigger: 0
  m_Enabled: 1
  serializedVersion: 2
  m_Size: {x: 103.115295, y: 68.97836, z: 203.26526}
  m_Center: {x: 0.32792282, y: 0.0000019073486, z: -0.07104492}
--- !u!64 &525110359
MeshCollider:
  m_ObjectHideFlags: 0
  m_CorrespondingSourceObject: {fileID: 0}
  m_PrefabInstance: {fileID: 0}
  m_PrefabAsset: {fileID: 0}
  m_GameObject: {fileID: 4444888836992396565}
  m_Material: {fileID: 0}
  m_IsTrigger: 0
  m_Enabled: 1
  serializedVersion: 3
  m_Convex: 0
  m_CookingOptions: 14
  m_Mesh: {fileID: -8236469409093403598, guid: 9a02c1b2fab0c034388c2c320388c0b1, type: 3}
--- !u!65 &644853198
BoxCollider:
  m_ObjectHideFlags: 0
  m_CorrespondingSourceObject: {fileID: 0}
  m_PrefabInstance: {fileID: 0}
  m_PrefabAsset: {fileID: 0}
  m_GameObject: {fileID: 4401165515398559824}
  m_Material: {fileID: 0}
  m_IsTrigger: 0
  m_Enabled: 1
  serializedVersion: 2
  m_Size: {x: 43.979733, y: 44.762848, z: 63.45532}
  m_Center: {x: 0.000120699406, y: 0.39153174, z: 9.737801}
--- !u!1001 &5450884837851095008
PrefabInstance:
  m_ObjectHideFlags: 0
  serializedVersion: 2
  m_Modification:
    m_TransformParent: {fileID: 0}
    m_Modifications:
    - target: {fileID: -927199367670048503, guid: 9a02c1b2fab0c034388c2c320388c0b1,
        type: 3}
      propertyPath: m_Name
      value: bathroom
      objectReference: {fileID: 0}
    - target: {fileID: -4216859302048453862, guid: 9a02c1b2fab0c034388c2c320388c0b1,
        type: 3}
      propertyPath: m_LocalPosition.x
      value: 12.21
      objectReference: {fileID: 0}
    - target: {fileID: -4216859302048453862, guid: 9a02c1b2fab0c034388c2c320388c0b1,
        type: 3}
      propertyPath: m_LocalPosition.y
      value: 3
      objectReference: {fileID: 0}
    - target: {fileID: -4216859302048453862, guid: 9a02c1b2fab0c034388c2c320388c0b1,
        type: 3}
      propertyPath: m_LocalPosition.z
      value: 28.33
      objectReference: {fileID: 0}
    - target: {fileID: -4216859302048453862, guid: 9a02c1b2fab0c034388c2c320388c0b1,
        type: 3}
      propertyPath: m_LocalRotation.x
      value: 0
      objectReference: {fileID: 0}
    - target: {fileID: -4216859302048453862, guid: 9a02c1b2fab0c034388c2c320388c0b1,
        type: 3}
      propertyPath: m_LocalRotation.y
      value: 0
      objectReference: {fileID: 0}
    - target: {fileID: -4216859302048453862, guid: 9a02c1b2fab0c034388c2c320388c0b1,
        type: 3}
      propertyPath: m_LocalRotation.z
      value: 0
      objectReference: {fileID: 0}
    - target: {fileID: -4216859302048453862, guid: 9a02c1b2fab0c034388c2c320388c0b1,
        type: 3}
      propertyPath: m_LocalRotation.w
      value: 1
      objectReference: {fileID: 0}
    - target: {fileID: -4216859302048453862, guid: 9a02c1b2fab0c034388c2c320388c0b1,
        type: 3}
      propertyPath: m_RootOrder
      value: 0
      objectReference: {fileID: 0}
    - target: {fileID: -4216859302048453862, guid: 9a02c1b2fab0c034388c2c320388c0b1,
        type: 3}
      propertyPath: m_LocalEulerAnglesHint.x
      value: 0
      objectReference: {fileID: 0}
    - target: {fileID: -4216859302048453862, guid: 9a02c1b2fab0c034388c2c320388c0b1,
        type: 3}
      propertyPath: m_LocalEulerAnglesHint.y
      value: 0
      objectReference: {fileID: 0}
    - target: {fileID: -4216859302048453862, guid: 9a02c1b2fab0c034388c2c320388c0b1,
        type: 3}
      propertyPath: m_LocalEulerAnglesHint.z
      value: 0
      objectReference: {fileID: 0}
    - target: {fileID: 431097991305411039, guid: 9a02c1b2fab0c034388c2c320388c0b1,
        type: 3}
      propertyPath: m_LocalPosition.y
      value: -16.55
      objectReference: {fileID: 0}
    m_RemovedComponents: []
  m_SourcePrefab: {fileID: 100100000, guid: 9a02c1b2fab0c034388c2c320388c0b1, type: 3}
--- !u!1 &3098637956862376643 stripped
GameObject:
  m_CorrespondingSourceObject: {fileID: -2259122369094245085, guid: 9a02c1b2fab0c034388c2c320388c0b1,
    type: 3}
  m_PrefabInstance: {fileID: 5450884837851095008}
  m_PrefabAsset: {fileID: 0}
--- !u!1 &4071572071123198458 stripped
GameObject:
  m_CorrespondingSourceObject: {fileID: -926527820121866726, guid: 9a02c1b2fab0c034388c2c320388c0b1,
    type: 3}
  m_PrefabInstance: {fileID: 5450884837851095008}
  m_PrefabAsset: {fileID: 0}
--- !u!1 &4444888836992396565 stripped
GameObject:
  m_CorrespondingSourceObject: {fileID: 8505615491864900341, guid: 9a02c1b2fab0c034388c2c320388c0b1,
    type: 3}
  m_PrefabInstance: {fileID: 5450884837851095008}
  m_PrefabAsset: {fileID: 0}
--- !u!1 &4401165515398559824 stripped
GameObject:
  m_CorrespondingSourceObject: {fileID: -670620357557033040, guid: 9a02c1b2fab0c034388c2c320388c0b1,
    type: 3}
  m_PrefabInstance: {fileID: 5450884837851095008}
  m_PrefabAsset: {fileID: 0}
